{
    "type": "Program",
    "body": {
        "type": "BinaryExpression",
        "operator": ">",
        "left": {
            "type": "Literal",
            "value": 2
        },
        "right": {
            "type": "Literal",
            "value": 1
        },
        "loc": {
            "end": {
                "column": 5,
                "line": 1
            },
            "start": {
                "column": 0,
                "line": 1
            }
        }
    },
    "loc": {
        "end": {
            "column": 5,
            "line": 1
        },
        "start": {
            "column": 0,
            "line": 1
        }
    }
}