{
    "type": "Program",
    "body": {
        "type": "BinaryExpression",
        "left": {
            "type": "Literal",
            "value": 10
        },
        "loc": {
            "end": {
                "column": 7,
                "line": 1
            },
            "start": {
                "column": 0,
                "line": 1
            }
        },
        "operator": "^",
        "right": {
            "type": "Literal",
            "value": 15
        }
    },
    "loc": {
        "end": {
            "column": 7,
            "line": 1
        },
        "start": {
            "column": 0,
            "line": 1
        }
    }
}