{
    "type": "Program",
    "body": {
        "type": "UnaryExpression",
        "operator": "void",
        "prefix": true,
        "argument": {
            "type": "Literal",
            "value": 1
        },
        "loc": {
            "end": {
                "column": 6,
                "line": 1
            },
            "start": {
                "column": 0,
                "line": 1
            }
        }
    },
    "loc": {
        "end": {
            "column": 6,
            "line": 1
        },
        "start": {
            "column": 0,
            "line": 1
        }
    }
}