{
    "type": "Program",
    "body": {
        "type": "Literal",
        "value": 0
    },
    "loc": {
        "end": {
            "column": 3,
            "line": 1
        },
        "start": {
            "column": 0,
            "line": 1
        }
    }
}