{
    "type": "Program",
    "body": {
        "type": "LogicalExpression",
        "operator": "&&",
        "left": {
            "type": "Literal",
            "value": false
        },
        "right": {
            "type": "Literal",
            "value": 15
        },
        "loc": {
            "end": {
                "column": 11,
                "line": 1
            },
            "start": {
                "column": 0,
                "line": 1
            }
        }
    },
    "loc": {
        "end": {
            "column": 11,
            "line": 1
        },
        "start": {
            "column": 0,
            "line": 1
        }
    }
}