{
    "type": "Program",
    "body": {
        "type": "LogicalExpression",
        "operator": "||",
        "left": {
            "type": "Literal",
            "value": false
        },
        "right": {
            "type": "LogicalExpression",
            "operator": "&&",
            "left": {
                "type": "Literal",
                "value": true
            },
            "right": {
                "type": "Literal",
                "value": 15
            },
            "loc": {
                "end": {
                    "column": 19,
                    "line": 1
                },
                "start": {
                    "column": 9,
                    "line": 1
                }
            }
        },
        "loc": {
            "end": {
                "column": 19,
                "line": 1
            },
            "start": {
                "column": 0,
                "line": 1
            }
        }
    },
    "loc": {
        "end": {
            "column": 19,
            "line": 1
        },
        "start": {
            "column": 0,
            "line": 1
        }
    }
}